{
  "code": 200,
  "meta": {
    "pagination": {
      "total": 1614,
      "pages": 81,
      "page": 1,
      "limit": 20
    }
  },
  "data": [
    {
      "id": 1,
      "name": "Sachin Bhat VM",
      "email": "bhat_sachin_vm@moore.net",
      "gender": "Female",
      "status": "Inactive",
      "created_at": "2021-05-08T03:50:04.257+05:30",
      "updated_at": "2021-05-08T03:50:04.257+05:30"
    },
    {
      "id": 2,
      "name": "Ram' + 1746",
      "email": "talwar_diksha@herman.biz",
      "gender": "Female",
      "status": "Active",
      "created_at": "2021-05-08T03:50:04.261+05:30",
      "updated_at": "2021-05-08T06:08:28.266+05:30"
    },
    {
      "id": 9,
      "name": "Leela Menon",
      "email": "leela_menon@conroy.io",
      "gender": "Male",
      "status": "Active",
      "created_at": "2021-05-08T03:50:04.412+05:30",
      "updated_at": "2021-05-08T03:50:04.412+05:30"
    },
    {
      "id": 13,
      "name": "Kanaka Varrier DVM",
      "email": "dvm_kanaka_varrier@gerlach-renner.io",
      "gender": "Male",
      "status": "Active",
      "created_at": "2021-05-08T03:50:04.484+05:30",
      "updated_at": "2021-05-08T03:50:04.484+05:30"
    },
    {
      "id": 14,
      "name": "Goswamee Naik",
      "email": "goswamee_naik@barrows.info",
      "gender": "Male",
      "status": "Inactive",
      "created_at": "2021-05-08T03:50:04.503+05:30",
      "updated_at": "2021-05-08T03:50:04.503+05:30"
    },
    {
      "id": 17,
      "name": "Prof. Anila Shah",
      "email": "anila_shah_prof@tillman.co",
      "gender": "Female",
      "status": "Active",
      "created_at": "2021-05-08T03:50:04.538+05:30",
      "updated_at": "2021-05-08T03:50:04.538+05:30"
    },
    {
      "id": 19,
      "name": "Amarnath Gowda",
      "email": "gowda_amarnath@klein.biz",
      "gender": "Male",
      "status": "Inactive",
      "created_at": "2021-05-08T03:50:04.559+05:30",
      "updated_at": "2021-05-08T03:50:04.559+05:30"
    },
    {
      "id": 21,
      "name": "Chaaruchandra Joshi",
      "email": "chaaruchandra_joshi@kertzmann.co",
      "gender": "Female",
      "status": "Inactive",
      "created_at": "2021-05-08T03:50:04.609+05:30",
      "updated_at": "2021-05-08T03:50:04.609+05:30"
    },
    {
      "id": 24,
      "name": "Dhanapati Malik LLD",
      "email": "dhanapati_malik_lld@thiel.biz",
      "gender": "Male",
      "status": "Inactive",
      "created_at": "2021-05-08T03:50:04.677+05:30",
      "updated_at": "2021-05-08T03:50:04.677+05:30"
    },
    {
      "id": 25,
      "name": "Jitender Bandopadhyay VM",
      "email": "jitender_bandopadhyay_vm@kris.info",
      "gender": "Female",
      "status": "Inactive",
      "created_at": "2021-05-08T03:50:04.680+05:30",
      "updated_at": "2021-05-08T03:50:04.680+05:30"
    },
    {
      "id": 26,
      "name": "Washington Luis Cabral da Silva",
      "email": "wluissilva@live.com",
      "gender": "Male",
      "status": "Active",
      "created_at": "2021-05-08T03:50:04.701+05:30",
      "updated_at": "2021-05-08T08:36:49.961+05:30"
    },
    {
      "id": 27,
      "name": "The Hon. Ekdant Dwivedi",
      "email": "the_dwivedi_ekdant_hon@beahan.net",
      "gender": "Male",
      "status": "Active",
      "created_at": "2021-05-08T03:50:04.719+05:30",
      "updated_at": "2021-05-08T03:50:04.719+05:30"
    },
    {
      "id": 28,
      "name": "Purushottam Gandhi",
      "email": "purushottam_gandhi@lowe-cummerata.biz",
      "gender": "Male",
      "status": "Inactive",
      "created_at": "2021-05-08T03:50:04.747+05:30",
      "updated_at": "2021-05-08T03:50:04.747+05:30"
    },
    {
      "id": 29,
      "name": "Amb. Tej Khatri",
      "email": "tej_amb_khatri@kuhn.io",
      "gender": "Male",
      "status": "Active",
      "created_at": "2021-05-08T03:50:04.761+05:30",
      "updated_at": "2021-05-08T03:50:04.761+05:30"
    },
    {
      "id": 30,
      "name": "Msgr. Prathamesh Khanna",
      "email": "khanna_msgr_prathamesh@langosh-mante.io",
      "gender": "Male",
      "status": "Inactive",
      "created_at": "2021-05-08T03:50:04.784+05:30",
      "updated_at": "2021-05-08T03:50:04.784+05:30"
    },
    {
      "id": 31,
      "name": "Opaline Dwivedi",
      "email": "opaline_dwivedi@douglas.info",
      "gender": "Male",
      "status": "Active",
      "created_at": "2021-05-08T03:50:04.795+05:30",
      "updated_at": "2021-05-08T03:50:04.795+05:30"
    },
    {
      "id": 32,
      "name": "Mrs. Deveshwar Rana",
      "email": "deveshwar_rana_mrs@vonrueden.com",
      "gender": "Female",
      "status": "Inactive",
      "created_at": "2021-05-08T03:50:04.810+05:30",
      "updated_at": "2021-05-08T03:50:04.810+05:30"
    },
    {
      "id": 33,
      "name": "Dhatri Chopra",
      "email": "chopra_dhatri@torphy.co",
      "gender": "Male",
      "status": "Inactive",
      "created_at": "2021-05-08T03:50:04.835+05:30",
      "updated_at": "2021-05-08T03:50:04.835+05:30"
    },
    {
      "id": 34,
      "name": "Vrund Deshpande",
      "email": "deshpande_vrund@lubowitz.com",
      "gender": "Female",
      "status": "Inactive",
      "created_at": "2021-05-08T03:50:04.846+05:30",
      "updated_at": "2021-05-08T03:50:04.846+05:30"
    },
    {
      "id": 35,
      "name": "Aayushmaan Jain",
      "email": "aayushmaan_jain@smitham.net",
      "gender": "Female",
      "status": "Inactive",
      "created_at": "2021-05-08T03:50:04.875+05:30",
      "updated_at": "2021-05-08T03:50:04.875+05:30"
    }
  ]
}